{
  "rows": [
    {
      "cols": [
        {
          "type": "image"
        },
        {
          "type": "image"
        }
      ]
    },
    {
      "cols": [
        {
          "type": "text",
          "value": "text text text texttext text text text"
        }
      ]
    },
    {
      "cols": [
        {
          "type": "text",
          "value": "text"
        },
        {
          "type": "text",
          "value": "text"
        },
        {
          "type": "image"
        }
      ]
    }
  ]
}
